# MagicaVoxel @ Ephtracy

# group
o 

# material
mtllib Flower1.mtl
usemtl palette

# normals
vn -1 0 0
vn 1 0 0
vn 0 0 1
vn 0 0 -1
vn 0 -1 0
vn 0 1 0

# texcoords
vt 0.408203 0.5
vt 0.416016 0.5
vt 0.771484 0.5
vt 0.892578 0.5
vt 0.900391 0.5

# verts
v -0.5 0 0.2
v -0.5 0 0.1
v -0.5 0.1 0.2
v -0.5 0.1 0.1
v -0.5 0.1 -0.4
v -0.5 0.1 -0.5
v -0.5 0.3 -0.4
v -0.5 0.3 -0.5
v -0.4 0 0.1
v -0.4 0 0
v -0.4 0 -0.1
v -0.4 0 -0.3
v -0.4 0 -0.4
v -0.4 0.1 0.3
v -0.4 0.1 0.2
v -0.4 0.1 0.1
v -0.4 0.1 0
v -0.4 0.1 -0.1
v -0.4 0.1 -0.3
v -0.4 0.1 -0.4
v -0.4 0.2 0.4
v -0.4 0.2 0.3
v -0.4 0.2 0.2
v -0.4 0.2 -0.3
v -0.4 0.2 -0.4
v -0.4 0.3 0.4
v -0.4 0.3 0.3
v -0.3 0 0.3
v -0.3 0 0.2
v -0.3 0 0
v -0.3 0 -0.1
v -0.3 0 -0.4
v -0.3 0 -0.5
v -0.3 0.1 0.4
v -0.3 0.1 0.3
v -0.3 0.1 0.2
v -0.3 0.1 0
v -0.3 0.1 -0.1
v -0.3 0.1 -0.3
v -0.3 0.1 -0.4
v -0.3 0.1 -0.5
v -0.3 0.2 0.4
v -0.3 0.2 0.3
v -0.3 0.2 0.2
v -0.3 0.2 0
v -0.3 0.2 -0.1
v -0.3 0.2 -0.3
v -0.2 0.2 0.1
v -0.2 0.2 0
v -0.2 0.2 -0.1
v -0.2 0.2 -0.2
v -0.2 0.4 0.1
v -0.2 0.4 0
v -0.2 0.5 0
v -0.2 0.5 -0.2
v -0.1 0 0.4
v -0.1 0 0.3
v -0.1 0.1 0.4
v -0.1 0.1 0.3
v -0.1 0.1 0
v -0.1 0.1 -0.1
v -0.1 0.2 0.2
v -0.1 0.2 0.1
v -0.1 0.2 0
v -0.1 0.2 -0.1
v -0.1 0.2 -0.2
v -0.1 0.2 -0.3
v -0.1 0.4 0.1
v -0.1 0.4 -0.2
v -0.1 0.4 -0.3
v -0.1 0.5 0.2
v -0.1 0.5 0.1
v 0 0.4 0
v 0 0.4 -0.1
v 0 0.5 0
v 0 0.5 -0.1
v 0.1 0 0.5
v 0.1 0 0.4
v 0.1 0 -0.4
v 0.1 0 -0.5
v 0.1 0.1 0.5
v 0.1 0.1 0.4
v 0.1 0.1 -0.4
v 0.1 0.1 -0.5
v 0.2 0.1 -0.2
v 0.2 0.1 -0.3
v 0.2 0.2 -0.2
v 0.2 0.2 -0.3
v 0.2 0.4 0
v 0.2 0.4 -0.2
v 0.2 0.5 0
v 0.2 0.5 -0.2
v 0.3 0 0.4
v 0.3 0 0.3
v 0.3 0 -0.4
v 0.3 0 -0.5
v 0.3 0.1 0.3
v 0.3 0.1 0.2
v 0.3 0.1 -0.3
v 0.3 0.1 -0.4
v 0.3 0.1 -0.5
v 0.3 0.2 0.4
v 0.3 0.2 0.3
v 0.3 0.2 0.2
v 0.3 0.2 -0.3
v 0.3 0.2 -0.4
v 0.4 0.1 -0.4
v 0.4 0.1 -0.5
v 0.4 0.2 0.4
v 0.4 0.2 0.3
v 0.4 0.2 -0.4
v 0.4 0.2 -0.5
v 0.4 0.3 0.4
v 0.4 0.3 0.3
v 0.4 0.3 -0.4
v 0.4 0.3 -0.5
v -0.3 0.2 0.4
v -0.3 0.2 0.3
v -0.3 0.2 -0.4
v -0.3 0.2 -0.5
v -0.3 0.3 0.4
v -0.3 0.3 0.3
v -0.3 0.3 -0.4
v -0.3 0.3 -0.5
v -0.2 0.1 0.4
v -0.2 0.1 0.3
v -0.2 0.1 0.2
v -0.2 0.1 -0.4
v -0.2 0.1 -0.5
v -0.2 0.2 0.4
v -0.2 0.2 0.3
v -0.2 0.2 0.2
v -0.2 0.2 -0.4
v -0.2 0.2 -0.5
v -0.1 0 -0.4
v -0.1 0 -0.5
v -0.1 0.1 -0.2
v -0.1 0.1 -0.3
v -0.1 0.1 -0.4
v -0.1 0.1 -0.5
v -0.1 0.2 -0.2
v -0.1 0.2 -0.3
v -0.1 0.2 -0.4
v -0.1 0.4 0
v -0.1 0.4 -0.2
v -0.1 0.5 0
v -0.1 0.5 -0.2
v 0 0.4 0.2
v 0 0.4 0.1
v 0 0.5 0.2
v 0 0.5 0.1
v 0.1 0.4 0
v 0.1 0.4 -0.1
v 0.1 0.5 0
v 0.1 0.5 -0.1
v 0.2 0 0.5
v 0.2 0 0.3
v 0.2 0 -0.4
v 0.2 0 -0.5
v 0.2 0.1 0.5
v 0.2 0.1 0.3
v 0.2 0.1 -0.4
v 0.2 0.1 -0.5
v 0.2 0.2 0.2
v 0.2 0.2 0.1
v 0.2 0.2 -0.2
v 0.2 0.2 -0.3
v 0.2 0.4 0.2
v 0.2 0.4 0.1
v 0.2 0.4 -0.2
v 0.2 0.4 -0.3
v 0.3 0.1 0.1
v 0.3 0.1 -0.2
v 0.3 0.2 0.1
v 0.3 0.2 -0.2
v 0.3 0.4 0.1
v 0.3 0.4 0
v 0.3 0.5 0
v 0.3 0.5 -0.2
v 0.4 0 0.4
v 0.4 0 0.3
v 0.4 0 0.1
v 0.4 0 0
v 0.4 0 -0.1
v 0.4 0 -0.2
v 0.4 0.1 0.4
v 0.4 0.1 0.3
v 0.4 0.1 0.2
v 0.4 0.1 0.1
v 0.4 0.1 0
v 0.4 0.1 -0.1
v 0.4 0.1 -0.2
v 0.4 0.1 -0.3
v 0.4 0.1 -0.4
v 0.4 0.2 0.3
v 0.4 0.2 0.2
v 0.4 0.2 0.1
v 0.4 0.2 -0.2
v 0.4 0.2 -0.3
v 0.4 0.2 -0.4
v 0.5 0 0.3
v 0.5 0 0.2
v 0.5 0 0.1
v 0.5 0 0
v 0.5 0 -0.1
v 0.5 0 -0.2
v 0.5 0 -0.3
v 0.5 0 -0.5
v 0.5 0.1 0.4
v 0.5 0.1 0.3
v 0.5 0.1 0.2
v 0.5 0.1 0.1
v 0.5 0.1 0
v 0.5 0.1 -0.1
v 0.5 0.1 -0.2
v 0.5 0.1 -0.3
v 0.5 0.1 -0.4
v 0.5 0.2 0.4
v 0.5 0.2 0.3
v 0.5 0.2 -0.4
v 0.5 0.2 -0.5
v 0.5 0.3 0.4
v 0.5 0.3 0.3
v 0.5 0.3 -0.4
v 0.5 0.3 -0.5
v 0.1 0 0.5
v 0.1 0.1 0.5
v 0.2 0 0.5
v 0.2 0.1 0.5
v -0.4 0.2 0.4
v -0.4 0.3 0.4
v -0.3 0.1 0.4
v -0.3 0.2 0.4
v -0.3 0.3 0.4
v -0.2 0.1 0.4
v -0.2 0.2 0.4
v -0.1 0 0.4
v -0.1 0.1 0.4
v 0.1 0 0.4
v 0.1 0.1 0.4
v 0.3 0 0.4
v 0.3 0.2 0.4
v 0.4 0 0.4
v 0.4 0.1 0.4
v 0.4 0.2 0.4
v 0.4 0.3 0.4
v 0.5 0.1 0.4
v 0.5 0.2 0.4
v 0.5 0.3 0.4
v -0.4 0.1 0.3
v -0.4 0.2 0.3
v -0.3 0 0.3
v -0.3 0.1 0.3
v -0.3 0.2 0.3
v -0.2 0 0.3
v -0.2 0.1 0.3
v -0.1 0 0.3
v -0.1 0.1 0.3
v 0.2 0 0.3
v 0.2 0.1 0.3
v 0.3 0 0.3
v 0.3 0.1 0.3
v 0.4 0 0.3
v 0.4 0.1 0.3
v 0.5 0 0.3
v 0.5 0.1 0.3
v -0.5 0 0.2
v -0.5 0.1 0.2
v -0.4 0.1 0.2
v -0.3 0 0.2
v -0.3 0.1 0.2
v -0.2 0.1 0.2
v -0.2 0.2 0.2
v -0.1 0.2 0.2
v -0.1 0.5 0.2
v 0 0.4 0.2
v 0 0.5 0.2
v 0.2 0.1 0.2
v 0.2 0.2 0.2
v 0.2 0.4 0.2
v 0.3 0.1 0.2
v 0.3 0.2 0.2
v -0.2 0.2 0.1
v -0.2 0.4 0.1
v -0.1 0.2 0.1
v -0.1 0.4 0.1
v 0.2 0.2 0.1
v 0.2 0.4 0.1
v 0.3 0.2 0.1
v 0.3 0.4 0.1
v -0.2 0.4 0
v -0.2 0.5 0
v -0.1 0.4 0
v -0.1 0.5 0
v 0 0.4 0
v 0 0.5 0
v 0.1 0.4 0
v 0.1 0.5 0
v 0.2 0.4 0
v 0.2 0.5 0
v 0.3 0.4 0
v 0.3 0.5 0
v 0.4 0 0
v 0.4 0.1 0
v 0.5 0 0
v 0.5 0.1 0
v -0.4 0 -0.1
v -0.4 0.1 -0.1
v -0.3 0 -0.1
v -0.3 0.1 -0.1
v -0.3 0.2 -0.1
v -0.2 0.2 -0.1
v -0.1 0.1 -0.1
v -0.1 0.2 -0.1
v 0.3 0.1 -0.2
v 0.3 0.2 -0.2
v 0.4 0 -0.2
v 0.4 0.1 -0.2
v 0.4 0.2 -0.2
v 0.5 0 -0.2
v 0.5 0.1 -0.2
v -0.4 0.1 -0.3
v -0.4 0.2 -0.3
v -0.3 0.1 -0.3
v -0.3 0.2 -0.3
v -0.5 0.1 -0.4
v -0.5 0.3 -0.4
v -0.4 0.1 -0.4
v -0.4 0.2 -0.4
v -0.4 0.3 -0.4
v -0.3 0.2 -0.4
v -0.3 0.3 -0.4
v 0.4 0.1 -0.4
v 0.4 0.2 -0.4
v 0.4 0.3 -0.4
v 0.5 0.1 -0.4
v 0.5 0.2 -0.4
v 0.5 0.3 -0.4
v -0.4 0.2 0.3
v -0.4 0.3 0.3
v -0.3 0.2 0.3
v -0.3 0.3 0.3
v 0.4 0.1 0.3
v 0.4 0.2 0.3
v 0.4 0.3 0.3
v 0.5 0.1 0.3
v 0.5 0.2 0.3
v 0.5 0.3 0.3
v -0.4 0.1 0.2
v -0.4 0.2 0.2
v -0.3 0.1 0.2
v -0.3 0.2 0.2
v -0.5 0 0.1
v -0.5 0.1 0.1
v -0.4 0 0.1
v -0.4 0.1 0.1
v -0.1 0.4 0.1
v -0.1 0.5 0.1
v 0 0.4 0.1
v 0 0.5 0.1
v 0.3 0.1 0.1
v 0.3 0.2 0.1
v 0.4 0 0.1
v 0.4 0.1 0.1
v 0.4 0.2 0.1
v 0.5 0 0.1
v 0.5 0.1 0.1
v -0.4 0 0
v -0.4 0.1 0
v -0.3 0 0
v -0.3 0.1 0
v -0.3 0.2 0
v -0.2 0.2 0
v -0.1 0.1 0
v -0.1 0.2 0
v 0 0.4 -0.1
v 0 0.5 -0.1
v 0.1 0.4 -0.1
v 0.1 0.5 -0.1
v 0.4 0 -0.1
v 0.4 0.1 -0.1
v 0.5 0 -0.1
v 0.5 0.1 -0.1
v -0.2 0.2 -0.2
v -0.2 0.5 -0.2
v -0.1 0.1 -0.2
v -0.1 0.2 -0.2
v -0.1 0.4 -0.2
v -0.1 0.5 -0.2
v 0.2 0.1 -0.2
v 0.2 0.2 -0.2
v 0.2 0.4 -0.2
v 0.2 0.5 -0.2
v 0.3 0.2 -0.2
v 0.3 0.5 -0.2
v -0.1 0.2 -0.3
v -0.1 0.4 -0.3
v 0.2 0.1 -0.3
v 0.2 0.2 -0.3
v 0.2 0.4 -0.3
v 0.3 0.1 -0.3
v 0.3 0.2 -0.3
v -0.4 0 -0.4
v -0.4 0.1 -0.4
v -0.3 0 -0.4
v -0.3 0.1 -0.4
v -0.2 0.1 -0.4
v -0.2 0.2 -0.4
v -0.1 0 -0.4
v -0.1 0.1 -0.4
v -0.1 0.2 -0.4
v 0.1 0 -0.4
v 0.1 0.1 -0.4
v 0.2 0 -0.4
v 0.2 0.1 -0.4
v 0.3 0 -0.4
v 0.3 0.1 -0.4
v 0.3 0.2 -0.4
v 0.4 0.1 -0.4
v 0.4 0.2 -0.4
v -0.5 0.1 -0.5
v -0.5 0.3 -0.5
v -0.4 0.2 -0.5
v -0.4 0.3 -0.5
v -0.3 0 -0.5
v -0.3 0.1 -0.5
v -0.3 0.2 -0.5
v -0.3 0.3 -0.5
v -0.2 0 -0.5
v -0.2 0.1 -0.5
v -0.2 0.2 -0.5
v -0.1 0 -0.5
v -0.1 0.1 -0.5
v 0.1 0 -0.5
v 0.1 0.1 -0.5
v 0.2 0 -0.5
v 0.2 0.1 -0.5
v 0.3 0 -0.5
v 0.3 0.1 -0.5
v 0.4 0.1 -0.5
v 0.4 0.2 -0.5
v 0.4 0.3 -0.5
v 0.5 0 -0.5
v 0.5 0.2 -0.5
v 0.5 0.3 -0.5
v 0.1 0 0.5
v 0.2 0 0.5
v -0.1 0 0.4
v 0.1 0 0.4
v 0.3 0 0.4
v 0.4 0 0.4
v -0.3 0 0.3
v -0.2 0 0.3
v -0.1 0 0.3
v 0.2 0 0.3
v 0.3 0 0.3
v 0.4 0 0.3
v 0.5 0 0.3
v -0.5 0 0.2
v -0.3 0 0.2
v -0.2 0 0.2
v 0.3 0 0.2
v 0.4 0 0.2
v 0.5 0 0.2
v -0.5 0 0.1
v -0.4 0 0.1
v 0.3 0 0.1
v 0.4 0 0.1
v 0.5 0 0.1
v -0.4 0 0
v -0.3 0 0
v -0.1 0 0
v 0.4 0 0
v 0.5 0 0
v -0.4 0 -0.1
v -0.3 0 -0.1
v -0.1 0 -0.1
v 0.4 0 -0.1
v 0.5 0 -0.1
v -0.1 0 -0.2
v 0.2 0 -0.2
v 0.3 0 -0.2
v 0.4 0 -0.2
v 0.5 0 -0.2
v -0.4 0 -0.3
v -0.3 0 -0.3
v 0.2 0 -0.3
v 0.3 0 -0.3
v 0.4 0 -0.3
v 0.5 0 -0.3
v -0.4 0 -0.4
v -0.3 0 -0.4
v -0.2 0 -0.4
v -0.1 0 -0.4
v 0.1 0 -0.4
v 0.2 0 -0.4
v 0.3 0 -0.4
v -0.3 0 -0.5
v -0.2 0 -0.5
v -0.1 0 -0.5
v 0.1 0 -0.5
v 0.2 0 -0.5
v 0.3 0 -0.5
v 0.5 0 -0.5
v -0.3 0.1 0.4
v -0.2 0.1 0.4
v 0.4 0.1 0.4
v 0.5 0.1 0.4
v -0.4 0.1 0.3
v -0.3 0.1 0.3
v -0.2 0.1 0.3
v 0.4 0.1 0.3
v 0.5 0.1 0.3
v -0.4 0.1 0.2
v -0.3 0.1 0.2
v -0.5 0.1 -0.4
v -0.4 0.1 -0.4
v -0.3 0.1 -0.4
v -0.5 0.1 -0.5
v -0.3 0.1 -0.5
v -0.4 0.2 0.4
v -0.3 0.2 0.4
v -0.4 0.2 0.3
v -0.3 0.2 0.3
v -0.2 0.2 0
v -0.1 0.2 0
v -0.2 0.2 -0.1
v -0.1 0.2 -0.1
v -0.1 0.2 -0.2
v 0.2 0.2 -0.2
v -0.1 0.2 -0.3
v 0.2 0.2 -0.3
v 0.1 0.1 0.5
v 0.2 0.1 0.5
v -0.1 0.1 0.4
v 0.1 0.1 0.4
v -0.2 0.1 0.3
v -0.1 0.1 0.3
v 0.2 0.1 0.3
v 0.3 0.1 0.3
v 0.4 0.1 0.3
v 0.5 0.1 0.3
v -0.5 0.1 0.2
v -0.4 0.1 0.2
v -0.3 0.1 0.2
v -0.2 0.1 0.2
v 0.2 0.1 0.2
v 0.3 0.1 0.2
v 0.4 0.1 0.2
v 0.5 0.1 0.2
v -0.5 0.1 0.1
v -0.4 0.1 0.1
v 0.3 0.1 0.1
v 0.4 0.1 0.1
v 0.5 0.1 0.1
v -0.4 0.1 0
v -0.3 0.1 0
v -0.1 0.1 0
v 0.4 0.1 0
v 0.5 0.1 0
v -0.4 0.1 -0.1
v -0.3 0.1 -0.1
v -0.1 0.1 -0.1
v 0.4 0.1 -0.1
v 0.5 0.1 -0.1
v -0.1 0.1 -0.2
v 0.2 0.1 -0.2
v 0.3 0.1 -0.2
v 0.4 0.1 -0.2
v 0.5 0.1 -0.2
v -0.4 0.1 -0.3
v -0.3 0.1 -0.3
v -0.1 0.1 -0.3
v 0.2 0.1 -0.3
v 0.3 0.1 -0.3
v 0.4 0.1 -0.3
v 0.5 0.1 -0.3
v -0.2 0.1 -0.4
v -0.1 0.1 -0.4
v 0.1 0.1 -0.4
v 0.2 0.1 -0.4
v 0.3 0.1 -0.4
v 0.4 0.1 -0.4
v 0.5 0.1 -0.4
v -0.2 0.1 -0.5
v -0.1 0.1 -0.5
v 0.1 0.1 -0.5
v 0.2 0.1 -0.5
v 0.3 0.1 -0.5
v 0.4 0.1 -0.5
v -0.3 0.2 0.4
v -0.2 0.2 0.4
v 0.3 0.2 0.4
v 0.4 0.2 0.4
v -0.4 0.2 0.3
v -0.3 0.2 0.3
v -0.2 0.2 0.3
v 0.3 0.2 0.3
v 0.4 0.2 0.3
v -0.4 0.2 0.2
v -0.3 0.2 0.2
v -0.2 0.2 0.2
v -0.1 0.2 0.2
v 0.2 0.2 0.2
v 0.3 0.2 0.2
v 0.4 0.2 0.2
v -0.2 0.2 0.1
v -0.1 0.2 0.1
v 0.2 0.2 0.1
v 0.3 0.2 0.1
v 0.4 0.2 0.1
v -0.3 0.2 0
v -0.2 0.2 0
v -0.3 0.2 -0.1
v -0.2 0.2 -0.1
v -0.2 0.2 -0.2
v -0.1 0.2 -0.2
v 0.2 0.2 -0.2
v 0.3 0.2 -0.2
v 0.4 0.2 -0.2
v -0.4 0.2 -0.3
v -0.3 0.2 -0.3
v -0.2 0.2 -0.3
v -0.1 0.2 -0.3
v 0.2 0.2 -0.3
v 0.3 0.2 -0.3
v 0.4 0.2 -0.3
v -0.4 0.2 -0.4
v -0.3 0.2 -0.4
v -0.2 0.2 -0.4
v -0.1 0.2 -0.4
v 0.3 0.2 -0.4
v 0.4 0.2 -0.4
v -0.3 0.2 -0.5
v -0.2 0.2 -0.5
v -0.4 0.3 0.4
v -0.3 0.3 0.4
v 0.4 0.3 0.4
v 0.5 0.3 0.4
v -0.4 0.3 0.3
v -0.3 0.3 0.3
v 0.4 0.3 0.3
v 0.5 0.3 0.3
v -0.5 0.3 -0.4
v -0.4 0.3 -0.4
v -0.3 0.3 -0.4
v 0.4 0.3 -0.4
v 0.5 0.3 -0.4
v -0.5 0.3 -0.5
v -0.4 0.3 -0.5
v -0.3 0.3 -0.5
v 0.4 0.3 -0.5
v 0.5 0.3 -0.5
v 0 0.4 0.2
v 0.2 0.4 0.2
v -0.2 0.4 0.1
v -0.1 0.4 0.1
v 0 0.4 0.1
v 0.2 0.4 0.1
v 0.3 0.4 0.1
v -0.2 0.4 0
v -0.1 0.4 0
v 0 0.4 0
v 0.1 0.4 0
v 0.2 0.4 0
v 0.3 0.4 0
v 0 0.4 -0.1
v 0.1 0.4 -0.1
v -0.1 0.4 -0.2
v 0.2 0.4 -0.2
v -0.1 0.4 -0.3
v 0.2 0.4 -0.3
v -0.1 0.5 0.2
v 0 0.5 0.2
v -0.1 0.5 0.1
v 0 0.5 0.1
v -0.2 0.5 0
v -0.1 0.5 0
v 0 0.5 0
v 0.1 0.5 0
v 0.2 0.5 0
v 0.3 0.5 0
v 0 0.5 -0.1
v 0.1 0.5 -0.1
v -0.2 0.5 -0.2
v -0.1 0.5 -0.2
v 0.2 0.5 -0.2
v 0.3 0.5 -0.2

# faces
f 3/5/1 2/5/1 1/5/1
f 4/5/1 2/5/1 3/5/1
f 7/3/1 6/3/1 5/3/1
f 8/3/1 6/3/1 7/3/1
f 16/5/1 10/5/1 9/5/1
f 17/5/1 10/5/1 16/5/1
f 18/5/1 12/5/1 11/5/1
f 19/3/1 13/3/1 12/3/1
f 19/5/1 12/5/1 18/5/1
f 20/3/1 13/3/1 19/3/1
f 22/3/1 15/3/1 14/3/1
f 23/3/1 15/3/1 22/3/1
f 24/4/1 20/4/1 19/4/1
f 25/4/1 20/4/1 24/4/1
f 26/4/1 22/4/1 21/4/1
f 27/4/1 22/4/1 26/4/1
f 35/3/1 29/3/1 28/3/1
f 36/3/1 29/3/1 35/3/1
f 37/5/1 31/5/1 30/5/1
f 38/5/1 31/5/1 37/5/1
f 40/3/1 33/3/1 32/3/1
f 41/3/1 33/3/1 40/3/1
f 42/3/1 35/3/1 34/3/1
f 43/3/1 35/3/1 42/3/1
f 44/3/1 37/3/1 36/3/1
f 45/3/1 37/3/1 44/3/1
f 46/3/1 39/3/1 38/3/1
f 47/3/1 39/3/1 46/3/1
f 52/1/1 49/1/1 48/1/1
f 52/1/1 51/1/1 50/1/1
f 52/1/1 50/1/1 49/1/1
f 53/1/1 51/1/1 52/1/1
f 54/1/1 51/1/1 53/1/1
f 55/1/1 51/1/1 54/1/1
f 58/5/1 57/5/1 56/5/1
f 59/5/1 57/5/1 58/5/1
f 64/3/1 61/3/1 60/3/1
f 65/3/1 61/3/1 64/3/1
f 68/1/1 63/1/1 62/1/1
f 69/1/1 67/1/1 66/1/1
f 70/1/1 67/1/1 69/1/1
f 71/1/1 68/1/1 62/1/1
f 72/1/1 68/1/1 71/1/1
f 75/1/1 74/1/1 73/1/1
f 76/1/1 74/1/1 75/1/1
f 81/5/1 78/5/1 77/5/1
f 82/5/1 78/5/1 81/5/1
f 83/5/1 80/5/1 79/5/1
f 84/5/1 80/5/1 83/5/1
f 87/4/1 86/4/1 85/4/1
f 88/4/1 86/4/1 87/4/1
f 91/1/1 90/1/1 89/1/1
f 92/1/1 90/1/1 91/1/1
f 97/3/1 94/3/1 93/3/1
f 100/3/1 96/3/1 95/3/1
f 101/3/1 96/3/1 100/3/1
f 102/3/1 97/3/1 93/3/1
f 103/4/1 98/4/1 97/4/1
f 103/3/1 97/3/1 102/3/1
f 104/4/1 98/4/1 103/4/1
f 105/3/1 100/3/1 99/3/1
f 106/3/1 100/3/1 105/3/1
f 111/3/1 108/3/1 107/3/1
f 112/3/1 108/3/1 111/3/1
f 113/4/1 110/4/1 109/4/1
f 114/4/1 110/4/1 113/4/1
f 115/4/1 112/4/1 111/4/1
f 116/4/1 112/4/1 115/4/1
f 117/4/2 118/4/2 121/4/2
f 121/4/2 118/4/2 122/4/2
f 119/4/2 120/4/2 123/4/2
f 123/4/2 120/4/2 124/4/2
f 125/3/2 126/3/2 130/3/2
f 126/4/2 127/4/2 131/4/2
f 130/3/2 126/3/2 131/3/2
f 131/4/2 127/4/2 132/4/2
f 128/3/2 129/3/2 133/3/2
f 133/3/2 129/3/2 134/3/2
f 135/5/2 136/5/2 139/5/2
f 139/5/2 136/5/2 140/5/2
f 137/4/2 138/4/2 141/4/2
f 138/3/2 139/3/2 142/3/2
f 141/4/2 138/4/2 142/4/2
f 142/3/2 139/3/2 143/3/2
f 144/1/2 145/1/2 146/1/2
f 146/1/2 145/1/2 147/1/2
f 148/1/2 149/1/2 150/1/2
f 150/1/2 149/1/2 151/1/2
f 152/1/2 153/1/2 154/1/2
f 154/1/2 153/1/2 155/1/2
f 156/5/2 157/5/2 160/5/2
f 160/5/2 157/5/2 161/5/2
f 158/5/2 159/5/2 162/5/2
f 162/5/2 159/5/2 163/5/2
f 164/1/2 165/1/2 168/1/2
f 168/1/2 165/1/2 169/1/2
f 166/1/2 167/1/2 170/1/2
f 170/1/2 167/1/2 171/1/2
f 172/3/2 173/3/2 174/3/2
f 174/3/2 173/3/2 175/3/2
f 174/1/2 175/1/2 176/1/2
f 176/1/2 175/1/2 177/1/2
f 177/1/2 175/1/2 178/1/2
f 178/1/2 175/1/2 179/1/2
f 180/3/2 181/3/2 186/3/2
f 186/3/2 181/3/2 187/3/2
f 182/5/2 183/5/2 189/5/2
f 189/5/2 183/5/2 190/5/2
f 184/5/2 185/5/2 191/5/2
f 191/5/2 185/5/2 192/5/2
f 187/4/2 188/4/2 195/4/2
f 188/3/2 189/3/2 196/3/2
f 195/4/2 188/4/2 196/4/2
f 196/3/2 189/3/2 197/3/2
f 192/4/2 193/4/2 198/4/2
f 193/3/2 194/3/2 199/3/2
f 198/4/2 193/4/2 199/4/2
f 199/3/2 194/3/2 200/3/2
f 201/3/2 202/3/2 210/3/2
f 202/5/2 203/5/2 211/5/2
f 210/3/2 202/3/2 211/3/2
f 211/5/2 203/5/2 212/5/2
f 204/5/2 205/5/2 213/5/2
f 213/5/2 205/5/2 214/5/2
f 206/5/2 207/5/2 215/5/2
f 207/3/2 208/3/2 216/3/2
f 215/5/2 207/5/2 216/5/2
f 216/3/2 208/3/2 217/3/2
f 209/3/2 210/3/2 218/3/2
f 218/3/2 210/3/2 219/3/2
f 217/3/2 208/3/2 220/3/2
f 220/3/2 208/3/2 221/3/2
f 218/4/2 219/4/2 222/4/2
f 222/4/2 219/4/2 223/4/2
f 220/4/2 221/4/2 224/4/2
f 224/4/2 221/4/2 225/4/2
f 228/5/3 227/5/3 226/5/3
f 229/5/3 227/5/3 228/5/3
f 233/4/3 231/4/3 230/4/3
f 234/4/3 231/4/3 233/4/3
f 235/3/3 233/3/3 232/3/3
f 236/3/3 233/3/3 235/3/3
f 239/5/3 238/5/3 237/5/3
f 240/5/3 238/5/3 239/5/3
f 243/3/3 242/3/3 241/3/3
f 244/3/3 242/3/3 243/3/3
f 245/3/3 242/3/3 244/3/3
f 247/3/3 245/3/3 244/3/3
f 248/4/3 246/4/3 245/4/3
f 248/3/3 245/3/3 247/3/3
f 249/4/3 246/4/3 248/4/3
f 253/3/3 251/3/3 250/3/3
f 254/3/3 251/3/3 253/3/3
f 255/3/3 253/3/3 252/3/3
f 256/3/3 253/3/3 255/3/3
f 257/5/3 256/5/3 255/5/3
f 258/5/3 256/5/3 257/5/3
f 261/5/3 260/5/3 259/5/3
f 262/5/3 260/5/3 261/5/3
f 265/3/3 264/3/3 263/3/3
f 266/3/3 264/3/3 265/3/3
f 269/5/3 268/5/3 267/5/3
f 270/5/3 269/5/3 267/5/3
f 271/5/3 269/5/3 270/5/3
f 274/3/3 273/3/3 272/3/3
f 276/1/3 275/1/3 274/1/3
f 277/1/3 275/1/3 276/1/3
f 278/3/3 274/3/3 272/3/3
f 279/1/3 276/1/3 274/1/3
f 279/3/3 274/3/3 278/3/3
f 280/1/3 276/1/3 279/1/3
f 281/4/3 279/4/3 278/4/3
f 282/4/3 279/4/3 281/4/3
f 285/1/3 284/1/3 283/1/3
f 286/1/3 284/1/3 285/1/3
f 289/1/3 288/1/3 287/1/3
f 290/1/3 288/1/3 289/1/3
f 293/1/3 292/1/3 291/1/3
f 294/1/3 292/1/3 293/1/3
f 297/1/3 296/1/3 295/1/3
f 298/1/3 296/1/3 297/1/3
f 301/1/3 300/1/3 299/1/3
f 302/1/3 300/1/3 301/1/3
f 305/5/3 304/5/3 303/5/3
f 306/5/3 304/5/3 305/5/3
f 309/5/3 308/5/3 307/5/3
f 310/5/3 308/5/3 309/5/3
f 312/3/3 311/3/3 310/3/3
f 313/3/3 312/3/3 310/3/3
f 314/3/3 312/3/3 313/3/3
f 318/4/3 316/4/3 315/4/3
f 319/4/3 316/4/3 318/4/3
f 320/5/3 318/5/3 317/5/3
f 321/5/3 318/5/3 320/5/3
f 324/4/3 323/4/3 322/4/3
f 325/4/3 323/4/3 324/4/3
f 328/3/3 327/3/3 326/3/3
f 329/3/3 327/3/3 328/3/3
f 330/3/3 327/3/3 329/3/3
f 331/4/3 330/4/3 329/4/3
f 332/4/3 330/4/3 331/4/3
f 336/3/3 334/3/3 333/3/3
f 337/4/3 335/4/3 334/4/3
f 337/3/3 334/3/3 336/3/3
f 338/4/3 335/4/3 337/4/3
f 339/4/4 340/4/4 341/4/4
f 341/4/4 340/4/4 342/4/4
f 343/3/4 344/3/4 346/3/4
f 344/4/4 345/4/4 347/4/4
f 346/3/4 344/3/4 347/3/4
f 347/4/4 345/4/4 348/4/4
f 349/3/4 350/3/4 351/3/4
f 351/3/4 350/3/4 352/3/4
f 353/5/4 354/5/4 355/5/4
f 355/5/4 354/5/4 356/5/4
f 357/1/4 358/1/4 359/1/4
f 359/1/4 358/1/4 360/1/4
f 361/3/4 362/3/4 364/3/4
f 364/3/4 362/3/4 365/3/4
f 363/5/4 364/5/4 366/5/4
f 366/5/4 364/5/4 367/5/4
f 368/5/4 369/5/4 370/5/4
f 370/5/4 369/5/4 371/5/4
f 371/3/4 372/3/4 373/3/4
f 371/3/4 373/3/4 374/3/4
f 374/3/4 373/3/4 375/3/4
f 376/1/4 377/1/4 378/1/4
f 378/1/4 377/1/4 379/1/4
f 380/5/4 381/5/4 382/5/4
f 382/5/4 381/5/4 383/5/4
f 384/1/4 385/1/4 387/1/4
f 387/1/4 385/1/4 388/1/4
f 388/1/4 385/1/4 389/1/4
f 386/3/4 387/3/4 390/3/4
f 390/3/4 387/3/4 391/3/4
f 392/1/4 393/1/4 394/1/4
f 391/1/4 392/1/4 394/1/4
f 394/1/4 393/1/4 395/1/4
f 396/1/4 397/1/4 399/1/4
f 399/1/4 397/1/4 400/1/4
f 398/4/4 399/4/4 401/4/4
f 401/4/4 399/4/4 402/4/4
f 403/3/4 404/3/4 405/3/4
f 405/3/4 404/3/4 406/3/4
f 407/3/4 408/3/4 410/3/4
f 410/3/4 408/3/4 411/3/4
f 409/5/4 410/5/4 412/5/4
f 412/5/4 410/5/4 413/5/4
f 414/5/4 415/5/4 416/5/4
f 416/5/4 415/5/4 417/5/4
f 417/3/4 418/3/4 419/3/4
f 419/3/4 418/3/4 420/3/4
f 421/3/4 422/3/4 423/3/4
f 423/3/4 422/3/4 424/3/4
f 421/3/4 423/3/4 426/3/4
f 423/4/4 424/4/4 427/4/4
f 426/3/4 423/3/4 427/3/4
f 427/4/4 424/4/4 428/4/4
f 425/3/4 426/3/4 429/3/4
f 426/3/4 427/3/4 429/3/4
f 429/3/4 427/3/4 430/3/4
f 430/3/4 427/3/4 431/3/4
f 429/5/4 430/5/4 432/5/4
f 432/5/4 430/5/4 433/5/4
f 434/5/4 435/5/4 436/5/4
f 436/5/4 435/5/4 437/5/4
f 438/3/4 439/3/4 440/3/4
f 440/3/4 441/3/4 443/3/4
f 438/3/4 440/3/4 443/3/4
f 441/4/4 442/4/4 444/4/4
f 443/3/4 441/3/4 444/3/4
f 444/4/4 442/4/4 445/4/4
f 449/5/5 447/5/5 446/5/5
f 454/5/5 449/5/5 448/5/5
f 455/5/5 447/5/5 449/5/5
f 455/5/5 449/5/5 454/5/5
f 456/3/5 451/3/5 450/3/5
f 457/3/5 451/3/5 456/3/5
f 460/3/5 453/3/5 452/3/5
f 461/5/5 454/5/5 453/5/5
f 461/5/5 455/5/5 454/5/5
f 461/3/5 453/3/5 460/3/5
f 461/5/5 456/5/5 455/5/5
f 462/3/5 458/3/5 457/3/5
f 462/5/5 456/5/5 461/5/5
f 462/3/5 457/3/5 456/3/5
f 463/3/5 458/3/5 462/3/5
f 464/3/5 458/3/5 463/3/5
f 465/5/5 460/5/5 459/5/5
f 466/5/5 460/5/5 465/5/5
f 467/3/5 461/3/5 460/3/5
f 467/3/5 462/3/5 461/3/5
f 467/3/5 463/3/5 462/3/5
f 468/5/5 464/5/5 463/5/5
f 468/3/5 463/3/5 467/3/5
f 469/5/5 464/5/5 468/5/5
f 470/5/5 460/5/5 466/5/5
f 471/3/5 467/3/5 460/3/5
f 471/5/5 460/5/5 470/5/5
f 472/3/5 467/3/5 471/3/5
f 473/5/5 468/5/5 467/5/5
f 476/5/5 472/5/5 471/5/5
f 477/3/5 467/3/5 472/3/5
f 477/5/5 472/5/5 476/5/5
f 478/5/5 474/5/5 473/5/5
f 478/5/5 473/5/5 467/5/5
f 479/5/5 474/5/5 478/5/5
f 480/3/5 467/3/5 477/3/5
f 480/3/5 477/3/5 476/3/5
f 481/3/5 467/3/5 480/3/5
f 482/5/5 478/5/5 467/5/5
f 482/3/5 467/3/5 481/3/5
f 483/5/5 478/5/5 482/5/5
f 485/5/5 476/5/5 475/5/5
f 486/3/5 480/3/5 476/3/5
f 486/5/5 476/5/5 485/5/5
f 487/5/5 481/5/5 480/5/5
f 487/3/5 482/3/5 481/3/5
f 487/3/5 483/3/5 482/3/5
f 488/3/5 483/3/5 487/3/5
f 489/5/5 484/5/5 483/5/5
f 489/3/5 483/3/5 488/3/5
f 490/5/5 484/5/5 489/5/5
f 491/3/5 486/3/5 485/3/5
f 492/3/5 480/3/5 486/3/5
f 492/3/5 486/3/5 491/3/5
f 493/3/5 480/3/5 492/3/5
f 494/5/5 488/5/5 487/5/5
f 494/3/5 480/3/5 493/3/5
f 494/5/5 487/5/5 480/5/5
f 495/5/5 488/5/5 494/5/5
f 496/5/5 488/5/5 495/5/5
f 497/3/5 489/3/5 488/3/5
f 497/5/5 488/5/5 496/5/5
f 497/3/5 490/3/5 489/3/5
f 498/3/5 493/3/5 492/3/5
f 499/5/5 494/5/5 493/5/5
f 499/3/5 493/3/5 498/3/5
f 500/5/5 494/5/5 499/5/5
f 501/5/5 496/5/5 495/5/5
f 502/5/5 496/5/5 501/5/5
f 503/3/5 490/3/5 497/3/5
f 504/3/5 490/3/5 503/3/5
f 510/3/5 506/3/5 505/3/5
f 511/3/5 506/3/5 510/3/5
f 512/3/5 508/3/5 507/3/5
f 513/3/5 508/3/5 512/3/5
f 514/3/5 510/3/5 509/3/5
f 515/3/5 510/3/5 514/3/5
f 519/3/5 517/3/5 516/3/5
f 519/3/5 518/3/5 517/3/5
f 520/3/5 518/3/5 519/3/5
f 523/4/5 522/4/5 521/4/5
f 524/4/5 522/4/5 523/4/5
f 527/1/5 526/1/5 525/1/5
f 528/1/5 526/1/5 527/1/5
f 531/1/5 530/1/5 529/1/5
f 532/1/5 530/1/5 531/1/5
f 533/5/6 534/5/6 536/5/6
f 535/5/6 536/5/6 538/5/6
f 536/5/6 534/5/6 539/5/6
f 538/5/6 536/5/6 539/5/6
f 537/5/6 538/5/6 546/5/6
f 538/5/6 539/5/6 546/5/6
f 539/5/6 540/5/6 546/5/6
f 546/5/6 540/5/6 547/5/6
f 547/5/6 540/5/6 548/5/6
f 541/3/6 542/3/6 549/3/6
f 549/3/6 542/3/6 550/3/6
f 544/5/6 545/5/6 551/5/6
f 543/5/6 544/5/6 551/5/6
f 551/5/6 545/5/6 552/5/6
f 549/5/6 550/5/6 554/5/6
f 554/5/6 550/5/6 555/5/6
f 552/5/6 545/5/6 556/5/6
f 556/5/6 545/5/6 557/5/6
f 553/5/6 554/5/6 559/5/6
f 557/5/6 558/5/6 562/5/6
f 562/5/6 558/5/6 563/5/6
f 553/5/6 559/5/6 564/5/6
f 559/5/6 560/5/6 564/5/6
f 564/5/6 560/5/6 565/5/6
f 553/5/6 564/5/6 568/5/6
f 568/5/6 564/5/6 569/5/6
f 561/5/6 562/5/6 571/5/6
f 571/5/6 562/5/6 572/5/6
f 566/5/6 567/5/6 573/5/6
f 573/5/6 567/5/6 574/5/6
f 569/5/6 570/5/6 576/5/6
f 576/5/6 570/5/6 577/5/6
f 574/5/6 575/5/6 579/5/6
f 573/5/6 574/5/6 579/5/6
f 579/5/6 575/5/6 580/5/6
f 580/5/6 575/5/6 581/5/6
f 581/5/6 575/5/6 582/5/6
f 576/3/6 577/3/6 583/3/6
f 583/3/6 577/3/6 584/3/6
f 578/5/6 579/5/6 585/5/6
f 585/5/6 579/5/6 586/5/6
f 580/5/6 581/5/6 587/5/6
f 587/5/6 581/5/6 588/5/6
f 582/3/6 583/3/6 589/3/6
f 589/3/6 583/3/6 590/3/6
f 591/3/6 592/3/6 596/3/6
f 596/3/6 592/3/6 597/3/6
f 593/3/6 594/3/6 598/3/6
f 598/3/6 594/3/6 599/3/6
f 595/3/6 596/3/6 600/3/6
f 596/4/6 597/4/6 601/4/6
f 600/3/6 596/3/6 601/3/6
f 601/4/6 597/4/6 602/4/6
f 598/4/6 599/4/6 605/4/6
f 605/4/6 599/4/6 606/4/6
f 602/3/6 603/3/6 607/3/6
f 601/3/6 602/3/6 607/3/6
f 607/3/6 603/3/6 608/3/6
f 604/4/6 605/4/6 609/4/6
f 605/3/6 606/3/6 610/3/6
f 609/4/6 605/4/6 610/4/6
f 610/3/6 606/3/6 611/3/6
f 601/3/6 607/3/6 612/3/6
f 612/3/6 607/3/6 613/3/6
f 614/3/6 615/3/6 616/3/6
f 614/3/6 616/3/6 622/3/6
f 616/4/6 617/4/6 623/4/6
f 622/3/6 616/3/6 623/3/6
f 623/4/6 617/4/6 624/4/6
f 619/4/6 620/4/6 625/4/6
f 618/4/6 619/4/6 625/4/6
f 625/4/6 620/4/6 626/4/6
f 626/4/6 620/4/6 627/4/6
f 621/4/6 622/4/6 628/4/6
f 623/3/6 624/3/6 629/3/6
f 628/4/6 622/4/6 629/4/6
f 622/3/6 623/3/6 629/3/6
f 629/3/6 624/3/6 630/3/6
f 630/3/6 624/3/6 631/3/6
f 626/3/6 627/3/6 632/3/6
f 632/3/6 627/3/6 633/3/6
f 629/3/6 630/3/6 634/3/6
f 634/3/6 630/3/6 635/3/6
f 636/4/6 637/4/6 640/4/6
f 640/4/6 637/4/6 641/4/6
f 638/4/6 639/4/6 642/4/6
f 642/4/6 639/4/6 643/4/6
f 644/3/6 645/3/6 649/3/6
f 645/4/6 646/4/6 650/4/6
f 649/3/6 645/3/6 650/3/6
f 650/4/6 646/4/6 651/4/6
f 647/4/6 648/4/6 652/4/6
f 652/4/6 648/4/6 653/4/6
f 654/1/6 655/1/6 658/1/6
f 658/1/6 655/1/6 659/1/6
f 656/1/6 657/1/6 661/1/6
f 657/2/6 658/2/6 662/2/6
f 661/1/6 657/1/6 662/1/6
f 658/2/6 659/2/6 662/2/6
f 662/2/6 659/2/6 663/2/6
f 663/2/6 659/2/6 664/2/6
f 659/1/6 660/1/6 665/1/6
f 664/2/6 659/2/6 665/2/6
f 665/1/6 660/1/6 666/1/6
f 662/2/6 663/2/6 667/2/6
f 664/2/6 665/2/6 668/2/6
f 662/2/6 667/2/6 669/2/6
f 667/2/6 668/2/6 669/2/6
f 668/2/6 665/2/6 670/2/6
f 669/2/6 668/2/6 670/2/6
f 669/1/6 670/1/6 671/1/6
f 671/1/6 670/1/6 672/1/6
f 673/1/6 674/1/6 675/1/6
f 675/1/6 674/1/6 676/1/6
f 679/1/6 680/1/6 683/1/6
f 683/1/6 680/1/6 684/1/6
f 677/1/6 678/1/6 685/1/6
f 685/1/6 678/1/6 686/1/6
f 681/1/6 682/1/6 687/1/6
f 687/1/6 682/1/6 688/1/6
